activity distance animal_nr
12.286 0.033514563 31
108.071 0.062620695 30
137.263 0.070565831 31
26.393 0.086124949 30
5.69 0.086463077 30
73.0 0.089320061 33
9.125 0.091135738 34
49.071 0.094360344 34
94.833 0.097659378 30
3.667 0.105943421 31
95.574 0.108436827 31
125.263 0.109559815 34
15.125 0.112685025 32
21.545 0.120288069 32
8.9 0.140840335 31
18.129 0.141273429 32
9.0 0.144726104 33
8.4 0.146377035 30
132.081 0.155735613 33
14.8 0.157509508 31
97.923 0.162617763 31
16.945 0.17298346 32
10.667 0.1827995 34
106.519 0.197983731 30
30.412 0.198294077 34
100.581 0.21652876 30
4.486 0.222967305 31
96.324 0.229650781 30
95.721 0.230248656 31
38.196 0.231600915 30
107.405 0.241083214 32
17.236 0.241162524 30
80.379 0.258600034 33
55.111 0.263103332 34
3.981 0.268238037 34
72.296 0.270488448 32
111.198 0.270884942 34
68.455 0.271295889 31
114.069 0.272309477 31
70.548 0.279315929 32
20.462 0.291079398 31
84.059 0.292459937 33
5.457 0.303929709 31
44.753 0.315209331 31
12.082 0.321564705 34
6.288 0.321964771 31
7.808 0.325509577 30
14.339 0.332732978 31
137.792 0.337808368 30
83.781 0.338469752 32
0.435 0.340423717 31
94.226 0.358488878 33
19.051 0.366890474 30
31.471 0.371443184 30
17.987 0.377901698 33
0.667 0.400284901 33
4.667 0.403266053 30
13.212 0.403310409 34
22.2 0.407184853 34
8.318 0.409100484 34
3.688 0.409143996 34
40.051 0.417089687 34
129.289 0.426040172 34
2.687 0.427046511 34
19.692 0.429321173 33
4.8 0.437113631 33
12.296 0.437534025 31
2.571 0.441387213 31
9.544 0.442600381 32
19.333 0.446465039 31
55.931 0.453486522 30
0.632 0.454008356 30
44.067 0.455957592 34
59.4 0.469562097 31
109.923 0.474307098 34
18.473 0.475887879 34
1.77 0.480778676 30
37.594 0.484600031 33
107.063 0.486329021 30
82.659 0.501717249 31
129.248 0.507917987 32
27.763 0.511669392 30
73.609 0.514890935 32
21.571 0.519547439 32
90.062 0.522272763 31
86.755 0.523743882 33
20.982 0.536557829 33
6.028 0.53795367 30
35.83 0.554984142 33
43.881 0.555830936 30
81.808 0.5578667 32
28.84 0.564847711 31
10.2 0.570370087 34
50.188 0.574928417 32
140.786 0.580746766 30
6.875 0.581326594 34
35.817 0.58333306 33
14.444 0.591020664 34
2.565 0.592063438 33
125.25 0.596023101 33
10.02 0.624254814 33
22.569 0.624598219 33
44.933 0.62463115 30
22.0 0.626761001 34
125.319 0.632558712 30
0.0 0.640994494 32
34.111 0.651840241 34
98.343 0.654332736 30
8.795 0.654765141 34
11.853 0.656088307 33
27.686 0.656981049 31
26.188 0.658880984 33
19.628 0.663960135 30
34.63 0.680881403 32
175.561 0.683725107 34
79.737 0.68824239 32
98.528 0.696994185 34
2.519 0.700346303 32
1.778 0.701528696 32
66.826 0.715913758 33
18.824 0.730993192 32
72.875 0.731052659 32
2.222 0.748837929 31
11.059 0.752580406 31
3.547 0.755839733 30
72.529 0.778447465 30
15.778 0.791770514 30
36.83 0.796915163 33
105.419 0.7974475 31
35.786 0.800644085 30
45.318 0.801797885 33
1.457 0.803762382 33
78.741 0.809326384 31
44.472 0.818468568 31
98.146 0.820968053 34
52.458 0.822755008 33
10.097 0.823952348 34
5.312 0.82914537 31
10.154 0.834296148 30
83.667 0.839757126 32
56.921 0.842537014 34
11.368 0.847474511 32
39.052 0.848818116 31
77.776 0.85774083 33
53.9 0.858796568 30
101.756 0.882256249 34
115.341 0.886621005 30
68.395 0.887177518 34
7.221 0.903359083 33
16.455 0.913578228 34
119.778 0.91381969 31
110.971 0.916010592 30
27.761 0.918995582 34
101.256 0.9239767 32
35.08 0.931710976 34
108.299 0.995091535 33